{
  "blocks": {
    "page": [],
    "btn": [],
    "logo": [],
    "svg-icon": [],
    "date": [],
    "sprite-png": [
      "__include"
    ],
    "sprite-svg": [],
    "table": [],
    "form": [],
    "field-text": [],
    "field-radio": [],
    "field-select": [],
    "field-checkbox": [],
    "field-toggler": [],
    "field-actions": [],
    "breadcrumbs": [],
    "pagination": [],
    "page-header": [],
    "page-footer": [],
    "hamburger": [],
    "main-nav": [],
    "scroll-link": [],
    "promo": [],
    "social": [],
    "mobile-menu": [],
    "services": [],
    "products": [],
    "about-company": [],
    "production": [],
    "news": [],
    "product-card": [],
    "main-slider": [],
    "slider-nav": [],
    "service-card": [],
    "news-card": [],
    "about-company-page": [],
    "certificates": []
  },
  "addCssBefore": [
    "./node_modules/modularscale-sass/stylesheets/_modularscale.scss",
    "./src/scss/variables.scss",
    "./src/scss/mixins.scss",
    "./src/scss/reset.scss",
    "./src/scss/fonts.scss",
    "./src/scss/global.scss"
  ],
  "addCssAfter": [
    "./src/scss/print.scss"
  ],
  "singleCompiled": [],
  "addJsBefore": [],
  "addJsAfter": [
    "./src/js/script.js"
  ],
  "copiedCss": [],
  "copiedJs": [],
  "addImages": [
    "./src/img/*.{jpg,jpeg,gif,png,svg,ico}"
  ],
  "directories": {
    "source": "./src/",
    "build": "./dist/",
    "blocksDirName": "blocks"
  }
}