<svg width="300" height="300" viewBox="0 0 300 300" fill="none" xmlns="http://www.w3.org/2000/svg">
<g clip-path="url(#clip0)">
<path d="M184.903 295.853C265.449 276.604 315.116 195.801 295.838 115.376C276.561 34.9498 195.637 -14.6437 115.091 4.60547C34.5455 23.8546 -15.1221 104.657 4.15585 185.083C23.4338 265.509 104.357 315.102 184.903 295.853Z" fill="white"/>
<path d="M171.452 10.0315C171.452 10.0315 189.112 12.7032 189.112 15.2535C189.112 19.9168 110.398 29.8264 110.398 34.4411C110.398 37.5743 127.814 40.6832 127.814 40.6832" stroke="#1A1A18" stroke-width="0.57" stroke-miterlimit="22.93"/>
<path d="M172.085 46.3425C172.085 46.3425 189.112 49.0142 189.112 51.5645C189.112 56.2278 113.706 67.6918 113.706 72.3552C113.706 75.4883 127.522 77.5043 127.522 77.5043" stroke="#1A1A18" stroke-width="0.57" stroke-miterlimit="22.93"/>
<path d="M172.085 84.3538C172.085 84.3538 183.785 86.2239 183.785 88.7742C183.785 93.4375 124.165 106.189 124.165 110.828C124.165 113.985 127.644 114.714 127.644 114.714" stroke="#1A1A18" stroke-width="0.57" stroke-miterlimit="22.93"/>
<path d="M172.085 122.923C172.085 122.923 178.531 123.87 178.531 126.445C178.531 131.084 124.482 142.718 124.482 147.357C124.499 148.248 124.823 149.106 125.399 149.787C125.975 150.468 126.767 150.93 127.644 151.097" stroke="#1A1A18" stroke-width="0.57" stroke-miterlimit="22.93"/>
<path d="M141.314 161.031H158.755C162.353 161.025 165.803 159.6 168.354 157.066C170.905 154.533 172.351 151.095 172.376 147.503V1.77365C157.558 -0.460682 142.487 -0.460682 127.668 1.77365V147.503C127.694 151.1 129.143 154.54 131.699 157.075C134.255 159.609 137.712 161.031 141.314 161.031V161.031Z" stroke="#3769B2" stroke-width="0.57" stroke-miterlimit="22.93"/>
<path d="M110.446 109.565H121.149V158.263C121.175 161.855 122.62 165.292 125.171 167.826C127.722 170.36 131.172 171.785 134.771 171.791H143.017V178.057H135.598C132.898 178.057 130.226 177.527 127.732 176.495C125.238 175.464 122.972 173.952 121.064 172.046C119.155 170.14 117.641 167.878 116.608 165.388C115.575 162.898 115.043 160.229 115.043 157.534V117.24H110.446V109.565Z" stroke="#1A1A18" stroke-width="0.57" stroke-miterlimit="22.93"/>
<path d="M189.622 109.565H178.919V158.263C178.894 161.859 177.445 165.3 174.888 167.835C172.332 170.369 168.876 171.791 165.273 171.791H157.027V178.057H164.325C167.024 178.057 169.697 177.527 172.19 176.495C174.684 175.464 176.95 173.952 178.859 172.046C180.767 170.14 182.281 167.878 183.314 165.388C184.347 162.898 184.879 160.229 184.879 157.534V117.24H189.525L189.622 109.565Z" stroke="#1A1A18" stroke-width="0.57" stroke-miterlimit="22.93"/>
<path d="M105.557 134.897H111.833V120.494H107.868V114.204L101.811 106.529V8.04004C96.0003 9.99212 90.3141 12.2957 84.7838 14.9379V113.985L105.557 134.897Z" stroke="#1A1A18" stroke-width="0.57" stroke-miterlimit="22.93"/>
<path d="M192.176 114.204V120.494H188.235V134.897H194.511L215.163 113.985V14.9379C209.632 12.2965 203.946 9.99296 198.136 8.04004V106.529L192.176 114.204Z" stroke="#1A1A18" stroke-width="0.57" stroke-miterlimit="22.93"/>
<path d="M137.884 211.648H13.5619C18.7701 223.05 25.3893 233.756 33.2647 243.514H137.86L137.884 211.648Z" stroke="#1A1A18" stroke-width="0.57" stroke-miterlimit="22.93"/>
<path d="M162.184 211.648V243.514H266.779C274.621 233.746 281.215 223.042 286.409 211.648H162.184Z" stroke="#1A1A18" stroke-width="0.57" stroke-miterlimit="22.93"/>
<path d="M184.914 295.395C265.46 276.145 315.127 195.343 295.849 114.917C276.571 34.4914 195.648 -15.1021 115.102 4.14709C34.5562 23.3962 -15.1113 104.199 4.16659 184.625C23.4445 265.05 104.368 314.644 184.914 295.395Z" stroke="#3769B2" stroke-width="0.57" stroke-miterlimit="22.93"/>
<path d="M144.987 161.031C142.555 173.977 140.803 196.322 140.803 221.752C140.803 261.827 144.939 294.3 150.022 294.3C155.106 294.3 159.266 261.827 159.266 221.752C159.266 196.346 157.587 174.001 155.082 161.031H144.987Z" fill="#3769B2"/>
</g>
<defs>
<clipPath id="clip0">
<rect width="300" height="300" fill="white"/>
</clipPath>
</defs>
</svg>
