<svg width="300" height="300" viewBox="0 0 300 300" fill="none" xmlns="http://www.w3.org/2000/svg">
<g clip-path="url(#clip0)">
<path d="M184.449 295.578C265.058 276.583 314.982 195.942 295.956 115.462C276.931 34.9816 196.161 -14.8621 115.552 4.13299C34.9423 23.1281 -14.9811 103.769 4.04436 184.249C23.0699 264.73 103.84 314.573 184.449 295.578Z" fill="white" stroke="#3769B2" stroke-width="0.57" stroke-miterlimit="22.93"/>
<path fill-rule="evenodd" clip-rule="evenodd" d="M98.2603 9.29003L106.385 18.3003V95.4344H191.524V75.8595L230.931 23.7162C211.44 11.2361 189.323 3.42671 166.307 0.898784C143.291 -1.62914 120.002 1.19293 98.2603 9.14431V9.29003Z" fill="#ECECED" stroke="#1A1A18" stroke-width="0.57" stroke-miterlimit="22.93"/>
<path fill-rule="evenodd" clip-rule="evenodd" d="M181.502 3.43698V41.664H131.026V1.29976C147.852 -0.824106 164.916 -0.101582 181.502 3.43698V3.43698Z" fill="white" stroke="#1A1A18" stroke-width="0.57" stroke-miterlimit="22.93"/>
<path d="M156.885 41.6641H143.189V86.3028H156.885V41.6641Z" fill="white" stroke="#1A1A18" stroke-width="0.57" stroke-miterlimit="22.93"/>
<path d="M151.995 115.447H148.079V166.934H151.995V115.447Z" fill="#3769B2" stroke="#3769B2" stroke-width="0.57" stroke-miterlimit="22.93"/>
<path fill-rule="evenodd" clip-rule="evenodd" d="M281.309 222.21H230.055V227.335H69.8968V222.21H18.8135C31.7667 245.673 50.7869 265.236 73.8911 278.861C96.9953 292.485 123.337 299.672 150.171 299.672C177.004 299.672 203.346 292.485 226.45 278.861C249.554 265.236 268.575 245.673 281.528 222.21H281.309Z" fill="#ECECED" stroke="#1A1A18" stroke-width="0.57" stroke-miterlimit="22.93"/>
<path fill-rule="evenodd" clip-rule="evenodd" d="M21.7081 222.696L20.1027 224.299L19.1296 223.327L20.7108 221.724L21.7081 222.696ZM278.074 222.696L215.29 285.379L214.317 284.408L277.101 221.724L278.074 222.696V222.696ZM264.573 222.696L263.6 221.724L192.351 292.884L193.324 293.855L264.5 222.696H264.573ZM251.097 222.696L250.124 221.724L174.715 297.013L175.688 297.984L251.097 222.696ZM237.596 222.696L236.623 221.724L159.487 298.761L160.46 299.733L237.596 222.696ZM219.449 227.335H217.503L145.719 299.029L146.692 300L219.449 227.335ZM205.973 227.335L134.043 299.15L133.143 298.154L204.027 227.335H205.973ZM192.472 227.335L122.294 297.401L121.321 296.43L190.526 227.335H192.472ZM178.972 227.335L111.25 294.9L110.277 293.928L176.929 227.335H178.972ZM165.496 227.335L101.009 291.718L100.036 290.747L163.525 227.335H165.496ZM151.995 227.335L91.1815 288.051L90.2085 287.08L150.171 227.335H151.995ZM138.494 227.335H136.548L81.1594 282.659L82.1324 283.631L138.494 227.335ZM124.994 227.335H123.048L72.4753 277.826L73.4483 278.798L124.994 227.335V227.335ZM111.518 227.335H109.571L64.2776 272.556L65.2506 273.528L111.469 227.383L111.518 227.335ZM98.0169 227.335H96.0709L56.5178 266.825L57.5151 267.796L98.0169 227.335V227.335ZM84.5163 227.335L50.1932 261.724L49.2202 260.753L82.5703 227.335H84.5163ZM71.0401 227.335L43.3091 255.021L42.3361 254.05L69.8968 226.46V227.335H71.0401ZM62.1856 222.696L36.8385 248.002L35.8412 247.152L61.2126 221.724L62.1856 222.696V222.696ZM48.685 222.696L47.712 221.724L29.8328 239.575L30.8058 240.547L48.685 222.696V222.696ZM35.1844 222.696L25.2353 232.581L24.2623 231.609L34.2114 221.652L35.1844 222.696Z" fill="#1A1A18"/>
<path d="M76.2214 71.8521V159.016" stroke="#3769B2" stroke-width="0.57" stroke-miterlimit="22.93"/>
<path fill-rule="evenodd" clip-rule="evenodd" d="M81.4755 157.074H70.9426L76.2212 163.655L81.4755 157.074Z" fill="#3769B2" stroke="#3769B2" stroke-width="0.57" stroke-miterlimit="22.93"/>
<path fill-rule="evenodd" clip-rule="evenodd" d="M81.4755 71.852H70.9426L76.2212 65.2947L81.4755 71.852Z" fill="#3769B2" stroke="#3769B2" stroke-width="0.57" stroke-miterlimit="22.93"/>
<path d="M119.861 115.446H32.5574" stroke="#3769B2" stroke-width="0.57" stroke-miterlimit="22.93"/>
<path fill-rule="evenodd" clip-rule="evenodd" d="M34.5032 120.692V110.176L27.9353 115.446L34.5032 120.692Z" fill="#3769B2" stroke="#3769B2" stroke-width="0.57" stroke-miterlimit="22.93"/>
<path fill-rule="evenodd" clip-rule="evenodd" d="M119.885 120.692V110.176L126.453 115.446L119.885 120.692Z" fill="#3769B2" stroke="#3769B2" stroke-width="0.57" stroke-miterlimit="22.93"/>
<path fill-rule="evenodd" clip-rule="evenodd" d="M150.901 218.446H232.634V206.958H150.901V218.446ZM233.291 220.195H149.587V205.21H233.948V220.195H233.291Z" fill="#3769B2" stroke="#3769B2" stroke-width="0.48" stroke-miterlimit="22.93"/>
<path fill-rule="evenodd" clip-rule="evenodd" d="M148.249 218.446H66.5155V206.958H148.249V218.446ZM65.8587 220.195H149.587V205.21H65.2019V220.195H65.8587Z" fill="#3769B2" stroke="#3769B2" stroke-width="0.48" stroke-miterlimit="22.93"/>
<path fill-rule="evenodd" clip-rule="evenodd" d="M106.044 218.446H65.1775V206.958H106.044V218.446ZM64.8613 220.195H106.701V205.21H64.5208V220.195H64.8613Z" fill="#3769B2" stroke="#3769B2" stroke-width="0.48" stroke-miterlimit="22.93"/>
<path fill-rule="evenodd" clip-rule="evenodd" d="M108.039 218.446H148.906V206.958H108.039V218.446ZM149.246 220.195H107.382V205.21H149.587V220.195H149.246Z" fill="#3769B2" stroke="#3769B2" stroke-width="0.48" stroke-miterlimit="22.93"/>
<path fill-rule="evenodd" clip-rule="evenodd" d="M299.626 139.612C299.845 142.987 299.967 146.412 299.967 149.836C300.01 175.152 293.588 200.061 281.309 222.21H268.49V139.636L299.626 139.612Z" fill="#ECECED" stroke="#1A1A18" stroke-width="0.57" stroke-miterlimit="22.93"/>
<path fill-rule="evenodd" clip-rule="evenodd" d="M0.471846 139.612C0.228592 142.987 0.106965 146.412 0.106965 149.836C0.0904604 175.155 6.5279 200.061 18.8132 222.21H38.0303V139.636L0.471846 139.612Z" fill="#ECECED" stroke="#1A1A18" stroke-width="0.57" stroke-miterlimit="22.93"/>
<path d="M184.449 295.578C265.058 276.583 314.982 195.942 295.956 115.462C276.931 34.9816 196.161 -14.8621 115.552 4.13299C34.9423 23.1281 -14.9811 103.769 4.04436 184.249C23.0699 264.73 103.84 314.573 184.449 295.578Z" stroke="#3769B2" stroke-width="0.57" stroke-miterlimit="22.93"/>
<path d="M154.014 115.447H146.06V132.593H154.014V115.447Z" fill="#3769B2" stroke="#3769B2" stroke-width="0.57" stroke-miterlimit="22.93"/>
<path d="M156.885 86.3027H143.189V115.447H156.885V86.3027Z" fill="white" stroke="#1A1A18" stroke-width="0.57" stroke-miterlimit="22.93"/>
<path fill-rule="evenodd" clip-rule="evenodd" d="M158.15 205.501L158.223 205.307L156.617 205.525L155.839 185.465L159.366 201.81L167.32 177.766L162.917 199.478L176.223 169.897L164.523 202.587L197.654 155.738L167.49 203.558L193.397 186.898L167.636 206.958H159.56L159.998 205.987L158.15 205.501Z" fill="#3769B2"/>
</g>
<defs>
<clipPath id="clip0">
<rect width="300" height="300" fill="white"/>
</clipPath>
</defs>
</svg>
